/* XPM */
static char *title_5_inactive[] = {
/* columns rows colors chars-per-pixel */
"4 18 1 1 ",
"  c gray10",
/* pixels */
"    ",
"    ",
"    ",
"    ",
"    ",
"    ",
"    ",
"    ",
"    ",
"    ",
"    ",
"    ",
"    ",
"    ",
"    ",
"    ",
"    ",
"    "
};
